.........................
----------------------------------------------------------------------
Ran 25 tests in 0.040s

OK
Name             Stmts   Miss Branch BrPart  Cover   Missing
------------------------------------------------------------
Collatz.py          59      0     18      0   100%
TestCollatz.py     108      0      0      0   100%
------------------------------------------------------------
TOTAL              167      0     18      0   100%
